            PIZZARIA & ESFIHARIA - SAO FRANCISCO
             Rua Planalto, 54 - Jardim Palmares
                TEL.: 2241-2513 / 2241-3210
        -------------------------------------------
                      21/06/2017 17:19
        ********************************************
                     TOTAL DE ENTREGAS
        ********************************************
                           Total
Motoboy                                      Total     
Cote                                         R$ 595,00 
-------------------------------------------------------


Impresso por: Junior Nascimento
--